[gd_scene load_steps=6 format=2]

[ext_resource path="res://assets/switchright.png" type="Texture" id=1]
[ext_resource path="res://assets/switchleft.png" type="Texture" id=2]
[ext_resource path="res://Switch.gd" type="Script" id=3]
[ext_resource path="res://assets/sound/switchreal.wav" type="AudioStream" id=4]

[sub_resource type="RectangleShape2D" id=1]
extents = Vector2( 30, 30 )

[node name="Switch" type="Node2D"]
script = ExtResource( 3 )

[node name="switchleft" type="Sprite" parent="."]
texture = ExtResource( 2 )

[node name="switchright" type="Sprite" parent="."]
visible = false
texture = ExtResource( 1 )

[node name="Area2D" type="Area2D" parent="."]

[node name="CollisionShape2D" type="CollisionShape2D" parent="Area2D"]
shape = SubResource( 1 )

[node name="AudioStreamPlayer" type="AudioStreamPlayer" parent="."]
stream = ExtResource( 4 )
volume_db = -16.156
[connection signal="area_entered" from="Area2D" to="." method="_on_Area2D_area_entered"]
