<?xml version="1.0" encoding="UTF-8" standalone="no"?>
<svg
   xmlns:dc="http://purl.org/dc/elements/1.1/"
   xmlns:cc="http://creativecommons.org/ns#"
   xmlns:rdf="http://www.w3.org/1999/02/22-rdf-syntax-ns#"
   xmlns:svg="http://www.w3.org/2000/svg"
   xmlns="http://www.w3.org/2000/svg"
   xmlns:sodipodi="http://sodipodi.sourceforge.net/DTD/sodipodi-0.dtd"
   xmlns:inkscape="http://www.inkscape.org/namespaces/inkscape"
   sodipodi:docname="loopdude.svg"
   inkscape:version="1.0 (4035a4fb49, 2020-05-01)"
   id="svg8"
   version="1.1"
   viewBox="0 0 210 297"
   height="297mm"
   width="210mm">
  <defs
     id="defs2" />
  <sodipodi:namedview
     inkscape:window-maximized="1"
     inkscape:window-y="0"
     inkscape:window-x="0"
     inkscape:window-height="1056"
     inkscape:window-width="1920"
     showgrid="false"
     inkscape:document-rotation="0"
     inkscape:current-layer="layer1"
     inkscape:document-units="mm"
     inkscape:cy="244.24599"
     inkscape:cx="251.68656"
     inkscape:zoom="3.8175681"
     inkscape:pageshadow="2"
     inkscape:pageopacity="0.0"
     borderopacity="1.0"
     bordercolor="#666666"
     pagecolor="#ffffff"
     id="base" />
  <metadata
     id="metadata5">
    <rdf:RDF>
      <cc:Work
         rdf:about="">
        <dc:format>image/svg+xml</dc:format>
        <dc:type
           rdf:resource="http://purl.org/dc/dcmitype/StillImage" />
        <dc:title></dc:title>
      </cc:Work>
    </rdf:RDF>
  </metadata>
  <g
     id="layer1"
     inkscape:groupmode="layer"
     inkscape:label="Ebene 1">
    <path
       inkscape:export-ydpi="96"
       inkscape:export-xdpi="96"
       inkscape:export-filename="/home/leonard/godot/ldjamloop/assets/dudestand.png"
       sodipodi:nodetypes="cccccc"
       id="path833"
       d="m 41.67552,44.389565 c -0.04436,1.778601 0.232863,3.494088 -0.160909,5.341266 2.530108,1.324799 5.048025,1.005668 7.561186,0.04501 -0.40225,-1.883573 -0.04324,-3.633399 -0.06392,-5.45011 -0.486455,-0.347513 -4.430935,-0.992854 -7.336349,0.06383 z"
       style="fill:#00a4d4;fill-opacity:1;stroke:none;stroke-width:0.067197px;stroke-linecap:butt;stroke-linejoin:miter;stroke-opacity:1" />
    <path
       inkscape:export-ydpi="96"
       inkscape:export-xdpi="96"
       inkscape:export-filename="/home/leonard/godot/ldjamloop/assets/dudestand.png"
       sodipodi:nodetypes="ssass"
       id="path835"
       d="m 43.532697,44.621738 c 0.884035,0.169972 2.602307,0.359077 3.730027,-0.163138 0.759957,-0.351915 1.587466,-3.192367 0.502002,-4.272334 -1.14929,-1.143468 -4.099455,-1.313405 -5.249367,-0.170404 -1.185808,1.178681 0.294998,4.466994 1.017338,4.605876 z"
       style="fill:#ffc3aa;fill-opacity:1;stroke:none;stroke-width:0.067197px;stroke-linecap:butt;stroke-linejoin:miter;stroke-opacity:1" />
    <path
       inkscape:export-ydpi="96"
       inkscape:export-xdpi="96"
       inkscape:export-filename="/home/leonard/godot/ldjamloop/assets/dudestand.png"
       sodipodi:nodetypes="cacc"
       id="path837"
       d="m 49.011869,44.325731 c 0,0 3.465814,3.899822 1.819648,4.793211 -1.481265,0.803895 -3.772,-3.154576 -3.772,-3.154576 z"
       style="fill:#00a4d4;fill-opacity:1;stroke:none;stroke-width:0.067197px;stroke-linecap:butt;stroke-linejoin:miter;stroke-opacity:1" />
    <path
       inkscape:export-ydpi="96"
       inkscape:export-xdpi="96"
       inkscape:export-filename="/home/leonard/godot/ldjamloop/assets/dudestand.png"
       sodipodi:nodetypes="ccac"
       id="path839"
       d="m 41.67552,44.389565 1.261965,1.747837 c 0,0 -2.017272,3.642844 -3.338925,2.899067 -1.608676,-0.905302 2.07696,-4.646904 2.07696,-4.646904"
       style="fill:#00a4d4;fill-opacity:1;stroke:none;stroke-width:0.067197px;stroke-linecap:butt;stroke-linejoin:miter;stroke-opacity:1" />
    <path
       inkscape:export-ydpi="96"
       inkscape:export-xdpi="96"
       inkscape:export-filename="/home/leonard/godot/ldjamloop/assets/dudestand.png"
       sodipodi:nodetypes="csc"
       id="path841"
       d="m 41.514611,49.730831 c 0,0 -0.954003,5.099011 1.043447,5.10776 1.810121,0.0079 1.748486,-3.095555 1.292395,-5.350716"
       style="fill:#00a4d4;fill-opacity:1;stroke:none;stroke-width:0.067197px;stroke-linecap:butt;stroke-linejoin:miter;stroke-opacity:1" />
    <path
       inkscape:export-ydpi="96"
       inkscape:export-xdpi="96"
       inkscape:export-filename="/home/leonard/godot/ldjamloop/assets/dudestand.png"
       sodipodi:nodetypes="csc"
       id="path843"
       d="m 46.018412,49.601594 c 0.194746,-0.102698 -0.259767,5.081748 1.564135,5.219058 1.898042,0.142892 1.925264,-2.364736 1.49325,-5.044811"
       style="fill:#00a4d4;fill-opacity:1;stroke:none;stroke-width:0.067197px;stroke-linecap:butt;stroke-linejoin:miter;stroke-opacity:1" />
    <path
       inkscape:export-ydpi="96"
       inkscape:export-xdpi="96"
       inkscape:export-filename="/home/leonard/godot/ldjamloop/assets/dudestand.png"
       sodipodi:nodetypes="cccccccccccccccc"
       id="path845"
       d="m 41.996789,41.229475 6.905976,-0.180386 1.008423,-1.430245 -1.437029,0.333423 0.275163,-1.387067 -1.622452,0.48724 -0.48468,-1.146988 -0.820892,1.195179 -1.442973,-1.162719 -0.0835,1.138535 -2.675009,-0.803937 0.478774,1.271549 -2.19506,-0.163425 1.302502,1.033625 -0.734737,0.681351 z"
       style="fill:#fef800;fill-opacity:1;stroke:none;stroke-width:0.067197px;stroke-linecap:butt;stroke-linejoin:miter;stroke-opacity:1" />
    <path
       inkscape:export-ydpi="96"
       inkscape:export-xdpi="96"
       inkscape:export-filename="/home/leonard/godot/ldjamloop/assets/dudestand.png"
       sodipodi:nodetypes="cac"
       id="path880"
       d="m 46.755538,42.510694 c 0,0 1.049003,0.316281 0.904122,0.660173 -0.158562,0.376365 -1.20821,-0.203378 -1.20821,-0.203378"
       style="fill:#d2a18c;fill-opacity:1;stroke:none;stroke-width:0.264583px;stroke-linecap:butt;stroke-linejoin:miter;stroke-opacity:1" />
    <ellipse
       inkscape:export-ydpi="96"
       inkscape:export-xdpi="96"
       inkscape:export-filename="/home/leonard/godot/ldjamloop/assets/dudestand.png"
       ry="0.6136651"
       rx="0.50095338"
       cy="42.121391"
       cx="45.946754"
       id="path882"
       style="fill:#ffffff;fill-opacity:1;stroke:none;stroke-width:4;stroke-linejoin:round" />
    <ellipse
       inkscape:export-ydpi="96"
       inkscape:export-xdpi="96"
       inkscape:export-filename="/home/leonard/godot/ldjamloop/assets/dudestand.png"
       style="fill:#ffffff;fill-opacity:1;stroke:none;stroke-width:4;stroke-linejoin:round"
       id="path882-2"
       cx="47.382736"
       cy="42.034462"
       rx="0.50095338"
       ry="0.61366516" />
    <path
       inkscape:export-ydpi="96"
       inkscape:export-xdpi="96"
       inkscape:export-filename="/home/leonard/godot/ldjamloop/assets/dudewalk1.png"
       style="fill:#00a4d4;fill-opacity:1;stroke:none;stroke-width:0.067197px;stroke-linecap:butt;stroke-linejoin:miter;stroke-opacity:1"
       d="m 57.4236,44.361244 c -0.04436,1.778601 0.232863,3.494088 -0.160909,5.341266 2.530108,1.324799 5.048025,1.005668 7.561186,0.04501 -0.40225,-1.883573 -0.04324,-3.633399 -0.06392,-5.45011 -0.486455,-0.347513 -4.430935,-0.992854 -7.336349,0.06383 z"
       id="path833-9"
       sodipodi:nodetypes="cccccc" />
    <path
       inkscape:export-ydpi="96"
       inkscape:export-xdpi="96"
       inkscape:export-filename="/home/leonard/godot/ldjamloop/assets/dudewalk1.png"
       style="fill:#ffc3aa;fill-opacity:1;stroke:none;stroke-width:0.067197px;stroke-linecap:butt;stroke-linejoin:miter;stroke-opacity:1"
       d="m 59.280777,44.593417 c 0.884035,0.169972 2.602307,0.359077 3.730027,-0.163138 0.759957,-0.351915 1.587466,-3.192367 0.502002,-4.272334 -1.14929,-1.143468 -4.099455,-1.313405 -5.249367,-0.170404 -1.185808,1.178681 0.294998,4.466994 1.017338,4.605876 z"
       id="path835-1"
       sodipodi:nodetypes="ssass" />
    <path
       inkscape:export-ydpi="96"
       inkscape:export-xdpi="96"
       inkscape:export-filename="/home/leonard/godot/ldjamloop/assets/dudewalk1.png"
       style="fill:#00a4d4;fill-opacity:1;stroke:none;stroke-width:0.067197px;stroke-linecap:butt;stroke-linejoin:miter;stroke-opacity:1"
       d="m 64.759949,44.29741 c 0,0 3.465814,3.899822 1.819648,4.793211 -1.481265,0.803895 -3.772,-3.154576 -3.772,-3.154576 z"
       id="path837-2"
       sodipodi:nodetypes="cacc" />
    <path
       inkscape:export-ydpi="96"
       inkscape:export-xdpi="96"
       inkscape:export-filename="/home/leonard/godot/ldjamloop/assets/dudewalk1.png"
       style="fill:#00a4d4;fill-opacity:1;stroke:none;stroke-width:0.067197px;stroke-linecap:butt;stroke-linejoin:miter;stroke-opacity:1"
       d="m 57.4236,44.361244 1.261965,1.747837 c 0,0 -2.017272,3.642844 -3.338925,2.899067 -1.608676,-0.905302 2.07696,-4.646904 2.07696,-4.646904"
       id="path839-7"
       sodipodi:nodetypes="ccac" />
    <path
       inkscape:export-ydpi="96"
       inkscape:export-xdpi="96"
       inkscape:export-filename="/home/leonard/godot/ldjamloop/assets/dudewalk1.png"
       style="fill:#00a4d4;fill-opacity:1;stroke:none;stroke-width:0.067197px;stroke-linecap:butt;stroke-linejoin:miter;stroke-opacity:1"
       d="m 57.262691,49.70251 c -0.306105,0.915119 1.969399,1.489433 1.566611,1.756437 -0.402789,0.267004 -1.244647,0.489698 -1.067809,1.490584 0.326008,1.845173 7.590339,-1.322651 1.83704,-3.489977"
       id="path841-0"
       sodipodi:nodetypes="cssc" />
    <path
       inkscape:export-ydpi="96"
       inkscape:export-xdpi="96"
       inkscape:export-filename="/home/leonard/godot/ldjamloop/assets/dudewalk1.png"
       style="fill:#00a4d4;fill-opacity:1;stroke:none;stroke-width:0.067197px;stroke-linecap:butt;stroke-linejoin:miter;stroke-opacity:1"
       d="m 62.252448,50.425415 c 1.571678,1.5973 1.990716,3.890014 2.864906,3.890215 2.036853,4.69e-4 0.683612,-3.630014 -0.293477,-4.56811"
       id="path843-9"
       sodipodi:nodetypes="csc" />
    <path
       inkscape:export-ydpi="96"
       inkscape:export-xdpi="96"
       inkscape:export-filename="/home/leonard/godot/ldjamloop/assets/dudewalk1.png"
       style="fill:#fef800;fill-opacity:1;stroke:none;stroke-width:0.067197px;stroke-linecap:butt;stroke-linejoin:miter;stroke-opacity:1"
       d="m 57.744869,41.201154 6.905976,-0.180386 1.008423,-1.430245 -1.437029,0.333423 0.275163,-1.387067 -1.622452,0.48724 -0.48468,-1.146988 -0.820892,1.195179 -1.442973,-1.162719 -0.0835,1.138535 -2.675009,-0.803937 0.478774,1.271549 -2.19506,-0.163425 1.302502,1.033625 -0.734737,0.681351 z"
       id="path845-3"
       sodipodi:nodetypes="cccccccccccccccc" />
    <path
       inkscape:export-ydpi="96"
       inkscape:export-xdpi="96"
       inkscape:export-filename="/home/leonard/godot/ldjamloop/assets/dudewalk1.png"
       style="fill:#d2a18c;fill-opacity:1;stroke:none;stroke-width:0.264583px;stroke-linecap:butt;stroke-linejoin:miter;stroke-opacity:1"
       d="m 62.714044,42.313733 c 0,0 1.049003,0.316281 0.904122,0.660173 -0.158562,0.376365 -1.20821,-0.203378 -1.20821,-0.203378"
       id="path880-6"
       sodipodi:nodetypes="cac" />
    <ellipse
       inkscape:export-ydpi="96"
       inkscape:export-xdpi="96"
       inkscape:export-filename="/home/leonard/godot/ldjamloop/assets/dudewalk1.png"
       style="fill:#ffffff;fill-opacity:1;stroke:none;stroke-width:4;stroke-linejoin:round"
       id="path882-0"
       cx="61.905262"
       cy="41.924431"
       rx="0.50095338"
       ry="0.61366516" />
    <ellipse
       inkscape:export-ydpi="96"
       inkscape:export-xdpi="96"
       inkscape:export-filename="/home/leonard/godot/ldjamloop/assets/dudewalk1.png"
       ry="0.61366516"
       rx="0.50095338"
       cy="41.837502"
       cx="63.341244"
       id="path882-2-6"
       style="fill:#ffffff;fill-opacity:1;stroke:none;stroke-width:4;stroke-linejoin:round" />
    <path
       inkscape:export-ydpi="96"
       inkscape:export-xdpi="96"
       inkscape:export-filename="/home/leonard/godot/ldjamloop/assets/dudewalk2.png"
       sodipodi:nodetypes="cccccc"
       id="path833-9-2"
       d="m 79.006712,44.539057 c -0.04436,1.778602 0.232863,3.494088 -0.160909,5.341266 2.530108,1.324799 5.048025,1.005668 7.561186,0.04501 -0.40225,-1.883572 -0.04324,-3.633399 -0.06392,-5.450109 -0.486455,-0.347514 -4.430935,-0.992854 -7.336349,0.06383 z"
       style="fill:#00a4d4;fill-opacity:1;stroke:none;stroke-width:0.067197px;stroke-linecap:butt;stroke-linejoin:miter;stroke-opacity:1" />
    <path
       inkscape:export-ydpi="96"
       inkscape:export-xdpi="96"
       inkscape:export-filename="/home/leonard/godot/ldjamloop/assets/dudewalk2.png"
       sodipodi:nodetypes="ssass"
       id="path835-1-6"
       d="m 80.863889,44.77123 c 0.884035,0.169972 2.602307,0.359077 3.730027,-0.163138 0.759957,-0.351915 1.587466,-3.192366 0.502002,-4.272334 -1.14929,-1.143468 -4.099455,-1.313405 -5.249367,-0.170404 -1.185808,1.178681 0.294998,4.466994 1.017338,4.605876 z"
       style="fill:#ffc3aa;fill-opacity:1;stroke:none;stroke-width:0.067197px;stroke-linecap:butt;stroke-linejoin:miter;stroke-opacity:1" />
    <path
       inkscape:export-ydpi="96"
       inkscape:export-xdpi="96"
       inkscape:export-filename="/home/leonard/godot/ldjamloop/assets/dudewalk2.png"
       sodipodi:nodetypes="cacc"
       id="path837-2-1"
       d="m 86.343061,44.475224 c 0,0 3.465814,3.899821 1.819648,4.79321 -1.481265,0.803895 -3.772,-3.154576 -3.772,-3.154576 z"
       style="fill:#00a4d4;fill-opacity:1;stroke:none;stroke-width:0.067197px;stroke-linecap:butt;stroke-linejoin:miter;stroke-opacity:1" />
    <path
       inkscape:export-ydpi="96"
       inkscape:export-xdpi="96"
       inkscape:export-filename="/home/leonard/godot/ldjamloop/assets/dudewalk2.png"
       sodipodi:nodetypes="ccac"
       id="path839-7-8"
       d="m 79.006712,44.539057 1.261965,1.747837 c 0,0 -2.017272,3.642844 -3.338925,2.899067 -1.608676,-0.905302 2.07696,-4.646904 2.07696,-4.646904"
       style="fill:#00a4d4;fill-opacity:1;stroke:none;stroke-width:0.067197px;stroke-linecap:butt;stroke-linejoin:miter;stroke-opacity:1" />
    <path
       inkscape:export-ydpi="96"
       inkscape:export-xdpi="96"
       inkscape:export-filename="/home/leonard/godot/ldjamloop/assets/dudewalk2.png"
       sodipodi:nodetypes="cssc"
       id="path841-0-7"
       d="m 83.673771,49.807122 c -0.306105,0.915119 1.969399,1.489433 1.566611,1.756437 -0.402789,0.267004 -1.244647,0.489698 -1.067809,1.490584 0.326008,1.845173 7.590339,-1.322651 1.83704,-3.489977"
       style="fill:#00a4d4;fill-opacity:1;stroke:none;stroke-width:0.067197px;stroke-linecap:butt;stroke-linejoin:miter;stroke-opacity:1" />
    <path
       inkscape:export-ydpi="96"
       inkscape:export-xdpi="96"
       inkscape:export-filename="/home/leonard/godot/ldjamloop/assets/dudewalk2.png"
       sodipodi:nodetypes="csc"
       id="path843-9-9"
       d="m 78.845803,49.880323 c 0.138259,2.092586 1.720564,4.036011 3.065013,3.828192 1.014029,-0.156744 -1.029092,-3.433913 -0.493584,-4.506087"
       style="fill:#00a4d4;fill-opacity:1;stroke:none;stroke-width:0.067197px;stroke-linecap:butt;stroke-linejoin:miter;stroke-opacity:1" />
    <path
       inkscape:export-ydpi="96"
       inkscape:export-xdpi="96"
       inkscape:export-filename="/home/leonard/godot/ldjamloop/assets/dudewalk2.png"
       sodipodi:nodetypes="cccccccccccccccc"
       id="path845-3-2"
       d="m 79.327981,41.378967 6.905976,-0.180386 1.008423,-1.430245 -1.437029,0.333423 0.275163,-1.387067 -1.622452,0.48724 -0.48468,-1.146988 -0.820892,1.195179 -1.442973,-1.162719 -0.0835,1.138535 -2.675009,-0.803937 0.478774,1.271549 -2.19506,-0.163425 1.302502,1.033625 -0.734737,0.681351 z"
       style="fill:#fef800;fill-opacity:1;stroke:none;stroke-width:0.067197px;stroke-linecap:butt;stroke-linejoin:miter;stroke-opacity:1" />
    <path
       inkscape:export-ydpi="96"
       inkscape:export-xdpi="96"
       inkscape:export-filename="/home/leonard/godot/ldjamloop/assets/dudewalk2.png"
       sodipodi:nodetypes="cac"
       id="path880-6-0"
       d="m 84.12646,42.447015 c 0,0 1.049003,0.31628 0.904122,0.660172 -0.158562,0.376366 -1.20821,-0.203378 -1.20821,-0.203378"
       style="fill:#d2a18c;fill-opacity:1;stroke:none;stroke-width:0.264583px;stroke-linecap:butt;stroke-linejoin:miter;stroke-opacity:1" />
    <ellipse
       inkscape:export-ydpi="96"
       inkscape:export-xdpi="96"
       inkscape:export-filename="/home/leonard/godot/ldjamloop/assets/dudewalk2.png"
       ry="0.61366516"
       rx="0.50095338"
       cy="42.057713"
       cx="83.31768"
       id="path882-0-2"
       style="fill:#ffffff;fill-opacity:1;stroke:none;stroke-width:4;stroke-linejoin:round" />
    <ellipse
       inkscape:export-ydpi="96"
       inkscape:export-xdpi="96"
       inkscape:export-filename="/home/leonard/godot/ldjamloop/assets/dudewalk2.png"
       style="fill:#ffffff;fill-opacity:1;stroke:none;stroke-width:4;stroke-linejoin:round"
       id="path882-2-6-3"
       cx="84.753662"
       cy="41.970783"
       rx="0.50095338"
       ry="0.61366516" />
  </g>
</svg>
